﻿Habitat;Semaine;N;S;Shannon;Pielou
graviers;A;73;12;0,731278741;0,677623656
graviers;A;22;7;0,591755075;0,700220621
graviers;A;75;9;0,827243701;0,866911391
graviers;A;36;8;0,749439179;0,829861022
graviers;A;79;8;0,548847212;0,607743658
graviers;A;63;11;0,757420249;0,727314739
graviers;A;124;11;0,560145677;0,537881324
graviers;B;35;13;0,980291543;0,880019204
graviers;B;24;15;1,060244264;0,901498295
litiere;A;17;8;0,734634811;0,813468006
litiere;A;19;6;0,624659584;0,802748288
litiere;A;11;5;0,614213594;0,87874099
litiere;A;21;4;0,297472073;0,494090419
litiere;A;54;10;0,856693658;0,856693658
litiere;A;34;8;0,816347633;0,903949379
litiere;A;30;5;0,612354298;0,876080939
litiere;A;51;10;0,743244551;0,743244551
litiere;B;11;6;0,712996326;0,916269589
litiere;B;6;4;0,577464587;0,959147917
litiere;B;14;8;0,871870626;0,96543051
litiere;B;38;12;0,996349912;0,923246132
litiere;B;9;5;0,56592584;0,809656833
litiere;B;23;8;0,722642184;0,800188457
spermaphytes;A;58;12;0,832277606;0,771212073
spermaphytes;A;46;7;0,749906793;0,887360705
spermaphytes;A;50;8;0,634152356;0,702202843
spermaphytes;A;69;12;0,762797574;0,706829901
spermaphytes;A;51;12;0,817762561;0,75776202
spermaphytes;A;33;6;0,444302265;0,570971601
spermaphytes;A;29;6;0,615892567;0,791481819
spermaphytes;A;12;6;0,677807918;0,871049064
spermaphytes;B;122;19;1,003022678;0,784375252
spermaphytes;B;57;16;1,095327047;0,909649423
spermaphytes;B;30;10;0,810238269;0,810238269
spermaphytes;B;59;16;0,982758114;0,816162947
spermaphytes;B;24;11;0,851665717;0,817814191