Quadrats;Especes;Coefficiants d'abondance
1;Fucus serratus;3
1;Fucus vesiculosus;2
1;Chondracanthus acicularis;2
1;Chondrus crispus;2
1;Caulacanthus okamurae;1
1;Corallina sp;1
1;Ulva sp;1
1;Phymatolithon lenormandii;1
1;Ahnfeltia plicata;1
1;Ulva clathrata;1
1;Mastocarpus stellatus;1
2;Fucus serratus;3
2;Chondracanthus acicularis;1
2;Chondrus crispus;1
2;Caulacanthus okamurae;1
2;Corallina sp;1
2;Ulva sp;1
2;Phymatolithon lenormandii;2
2;Ahnfeltia plicata;2
2;Ulva clathrata;1
2;Mastocarpus stellatus;1
2;Lomentaria articulata;1
2;Polyides rotundus;1
3;Fucus vesiculosus;4
3;Chondracanthus acicularis;1
3;Chondrus crispus;1
3;Caulacanthus okamurae;1
3;Ulva sp;1
3;Ahnfeltia plicata;1
3;Ulva clathrata;1
3;Lomentaria articulata;1
3;Elachista fucicola;1
3;Osmundea pinnatifida;1
3;Plocamium cartilagineum;1
3;Ralfsia verrucosa;1
4;Fucus vesiculosus;1
4;Hildenbranchia rubra;1
4;Cladophora rupestris;1
5;Fucus vesiculosus;2
5;Chondrus crispus;1
5;Caulacanthus okamurae;1
5;Ulva sp;1
5;Ulva clathrata;1
5;Lomentaria articulata;1
5;Polyides rotundus;1
5;Osmundea pinnatifida;1
5;Ralfsia verrucosa;1
6;Fucus vesiculosus;5
6;Chondracanthus acicularis;1
6;Caulacanthus okamurae;1
6;Ulva clathrata;1
6;Mastocarpus stellatus;1
6;Lomentaria articulata;1
6;Osmundea pinnatifida;1
6;Cladophora rupestris;1
7;Fucus vesiculosus;1
7;Ralfsia verrucosa;1
7;Chaetomorpha aerea;1
7;Vertebrata thuyoides;1
8;Chondracanthus acicularis;1
8;Caulacanthus okamurae;1
8;Vertebrata thuyoides;1
8;Ulva intestinalis;1
8;Ascophyllum nodosum;1
9;Chaetomorpha aerea;1
9;Ulva intestinalis;1
9;Palmaria palmata;1
10;Fucus spiralis;2
10;Chondracanthus acicularis;1
10;Ulva sp;1
11;Pelvetia canaliculata;1
11;Hydropunctaria maura;2